"상세고유순번","관리번호","명칭","관련항목","연계자원","경도정보(127.XX)","위도정보(36.XXX)","이명칭","개요","시대분류","주제분류","지번주소","도로명주소","지역","제공기관","언어유형","제작일","유형","형식","전화번호","지정현황","휴무일","이용시간","이용요금","주차","장애인 편의시설","체험안내","안내서비스","예약"
"401","JGS_000001","Deoksugung Palace","","JGH_000370","126.97653","37.56502","Gyeongungung Palace Temporary Palace at Jeongneung-dong West Palace","It was originally called Gyeongungung Palace but has been called Deoksugung Palace since 1907. Gates pavilions and halls including Daehanmun Gate Junghwamun Gate Gwangmyeongmun Gate Junghwajeong Hall Junmyeongdang Hall Seogeodang Hall Seokjojeon Hall Hamnyeongjeon Hall and Jeukjodang Hall still remain in 61500㎡ land.","","","","99 Sejong-daero Jung-gu Seoul","Sejong-daero Jung-gu Seoul","Jung-gu?Office?Seoul?","ENG","2015-12-30","DATA","HTML","02-771-9951","Historical Site No. 124","Mondays","Ticketing and Admission Time 09:00 ~ 20:00 Closing Time 09:00 ~ 21:00","Adult (25 or over) 1000 wonAdult Group (10 or more) 800 won","","Wheelchair rental","Try Korean Traditional Clothes Changing of the Guards Ceremony","",""
"402","JGS_000002","Jungmyeongjeon Hall of Deoksugung Palace","","JGH_000350","126.97252","37.56659","","Jungmyeongjeon Hall constructed in 1901 is a part of Gyeongungung which is today’s Deoksugung Palace and it was used as the reception hall banquet hall and library. This was the place the banquet was held during the wedding ceremony of the Crown Prince (Sunjong) and Crown Princess Yun in 1907 and also the unfortunate place where the Japan-Korea Treaty of 1905 was concluded by force. It had been leased to foreigners in 1915 during Japanese colonial era and used as Seoul Club building.","","","","41-11 Jeongdong-gil Jung-gu Seoul","Jeongdong-gil Jung-gu Seoul","Jung-gu?Office?Seoul?","ENG","2015-12-30","DATA","HTML","","","","","","","","","",""
"403","JGS_000003","Hwangudan (Wongudan)","","JGH_000335","126.97969","37.56506","","Hwangudan Altar is the space where the emperor held memorial service for heaven. This is where Emperor Gwangmu of the Korean Empire which succeeded to the Joseon Empire held memorial service for heaven. Hwangudan Altar was completed in 1897 and was designed by Sim Eui-seok the master builder for the imperial family at the time.","","","","106 Sogong-ro Jung-gu Seoul","Sogong-ro Jung-gu Seoul","Jung-gu?Office?Seoul?","ENG","2015-12-30","DATA","HTML","","","","","","","","","",""
"404","JGS_000004","Former Russian Legation","","JGH_000355","126.97146","37.56825","","This is the renaissance style building designed by A. I. Sabatin of Russia in 1890 (Gojong 27). The main building was destroyed during the Korean War and currently only the 3-story tower remains. This is famous for King Gojong’s refuge to avoid Japan’s pressure using force.","","","","Jeong-dong Park 21-18 Jeongdong-gil Jung-gu Seoul","Jeongdong-gil Jung-gu Seoul","Jung-gu?Office?Seoul?","ENG","2015-12-30","DATA","HTML","","","","","","","","","",""
"405","JGS_000005","Chungdong First Methodist Church","","JGH_000367","126.97236","37.56542","","Chungdong First Methodist Church is a protestant church chapel and construction of the church began in 1895 (Gojong 32) and was completed in October 1897 (Gwangmu 1).","","","","Chungdong First Methodist Church 46 Jeongdong-gil Jung-gu Seoul","Jeongdong-gil Jung-gu Seoul","Jung-gu?Office?Seoul?","ENG","2015-12-30","DATA","HTML","","","","","","Parking space available","","","",""
"406","JGS_000006","Appenzeller Noble Memorial Museum (Former East Wing of Pai Chai School)","","JGH_000368","126.97262","37.56378","","This building was completed in 1916 and was used as a school building until Pai Chai middle and high schools moved to Gangdong-gu in 1984. Pai Chai School was established by the missionary Henry Gerhard Appenzeller in August 1885 and in the beginning he purchased private houses in the area and used them as school buildings.","","","","19 Seosomun-ro 11-gil Jung-gu Seoul","Seosomun-ro Jung-gu Seoul","Jung-gu?Office?Seoul?","ENG","2015-12-30","DATA","HTML","","Seoul Monument No. 16","Mondays Holidays","Everyday 10:00 ~ 17:00","Free","","","","",""
"407","JGS_000007","Seoul Museum of Art","","JGH_000313","126.97377","37.56402","","This place was previously occupied by Royal English Academy German legation and Gyeongseong District Court. After the liberation the building was occupied by the Supreme Court of Korea and it reopened as Seoul Museum of Art from 2002.","","","","61 Deoksugung-gil Jung-gu Seoul","Deoksugung-gil Jung-gu Seoul","Jung-gu?Office?Seoul?","ENG","2015-12-30","DATA","HTML","02-2124-8800","Registered Cultural Heritage No. 237","Mondays January 1","","","Parking space available","","","",""
"408","JGS_000008","Yangijae Gyeongungung Palace","","JGH_000361","126.97544","37.56694","","It was completed in 1905 while restoring Gyeongungung Palace (Deoksugung Palace) which was burned in a huge fire. It was in charge of the modern education of the imperial family and aristocrats of the Korean Empire and today it is used as the office of the bishop of the Anglican Church of Korea.","","","","15 Sejong-daero 21-gil Jung-gu Seoul","Sejong-daero Jung-gu Seoul","Jung-gu?Office?Seoul?","ENG","2015-12-30","DATA","HTML","","Registered Cultural Heritage No. 267","","","","","","","",""
"409","JGS_000009","Annex of Former Shina Daily News","","JGH_000354","126.97217","37.56619","","This is a 2-story reinforced concrete building with a basement constructed in the 1930's. The Korean branch of SINGER an American company initially used the building until Shina Daily News purchased the building in 1963. In 1975 Shina Daily News extended the building by adding 3rd and 4th floors and used it as the annex. Shina Daily News was incorporated into the Kyunghyang Shinmun during the merger of press by the new military regime in 1980.","","","","33 Jeongdong-gil Jung-gu Seoul","Jeongdong-gil Jung-gu Seoul","Jung-gu?Office?Seoul?","ENG","2015-12-30","DATA","HTML","","Registered Cultural Heritage No. 402","","","","","","","",""
"410","JGS_000010","Central Hall of the Korean Salvation Army","","JGH_000352","126.9736","37.56761","","Central Hall of the Korean Salvation Army was completed in 1928 to be used as the base for fostering Salvation Army officials and leading mission work and social services.","","","","130 Deoksugung-gil Jung-gu Seoul","Deoksugung-gil Jung-gu Seoul","Jung-gu?Office?Seoul?","ENG","2015-12-30","DATA","HTML","02-720-9494","Seoul Monument No. 20","","","","","","","",""
"411","JGS_000011","Seoul Cathedral of the Anglican Church of Korea","","JGH_000360","126.97605","37.56711","Seoul Anglican Cathedral","The construction of Seoul Cathedral of the Anglican Church of Korea started in September 1922 and the first phase of the construction was completed in May 1926 and the second phase started in 1994 and was completed in 1996.","","","","15 Sejong-daero 21-gil Jung-gu Seoul","Sejong-daero Jung-gu Seoul","Jung-gu?Office?Seoul?","ENG","2015-12-30","DATA","HTML","02-730-6611","Tangible Cultural Heritage of Seoul No. 35","Sundays","","","","","","",""
"412","JGS_000012","Ewha Girls' High School Simpson Memorial Hall","","JGH_000364","126.97133","37.56615","","This is the school building of Ewha School completed in 1915. The cost of construction was covered by the donation provided by Miss Holbrook of Columbia River Brach and the building was named ‘Simpson Memorial Hall’ to cherish the memory of Sarah Simpson the sister of the donor who passed away at the time.","","","","26 Jeongdong-gil Jung-gu Seoul","Jeongdong-gil Jung-gu Seoul","Jung-gu?Office?Seoul?","ENG","2015-12-30","DATA","HTML","","Registered Cultural Heritage No. 3","","","","","","","",""
"413","JGS_000013","Ewha Girls' High School 100th Anniversary Memorial Hall","","JGH_000365","126.97063","37.5662","","This was the location of Sontag Hotel which was frequented by the ministers of various countries missionaries and pro-enlightenment people of Joseon in the 1890’s. Ewha Girls' High School Frey Hall was burned down in a fire in 1975 and the Ewha Girls’ High School 100th Anniversary Memorial Hall was constructed in the same spot.","","","","26 Jeongdong-gil Jung-gu Seoul","Jeongdong-gil Jung-gu Seoul","Jung-gu?Office?Seoul?","ENG","2015-12-30","DATA","HTML","02-777-4258","","","","","","","","",""
"414","JGS_000014","Former National Assembly Building (Office of Seoul Metropolitan Council)","","JGH_000177","126.9766","37.56747","","This is a multipurpose building that Gyeongseongbu Office (currently Seoul City Hall) constructed between 1933 and 1935 on the west side for the residents of Gyeongseong (citizens of Seoul). It served as the citizens’ hall at the time of construction socializing place for US Army after the liberation the National Theater National Assembly building and annex of Sejong Center for Performing Arts afterwards and currently the office for Seoul Metropolitan Council.","","","","125 Sejong-daero Jung-gu Seoul","Sejong-daero Jung-gu Seoul","Jung-gu?Office?Seoul?","ENG","2015-12-30","DATA","HTML","","Registered Cultural Heritage No. 11","","","","","","","",""
"415","JGS_000015","Yi Yeong-hun Memorial","","JGH_001146","126.97337","37.56532","","Yi Yeong-hun was the composer of popular songs who was born in Seoul on March 6 1960 and passed away on February 14 2009.","","","","Inside Deoksugung Palace Stonewall Walkway 7 Jeong-dong Jung-gu Seoul","Jeong-dong Jung-gu Seoul","Jung-gu?Office?Seoul?","ENG","2015-12-30","DATA","HTML","","","","","","","","","",""
"416","JGS_000016","Former Seoul City Hall (Seoul Library)","","JGH_000174","126.97781","37.5662","","Former Seoul City Hall is a renaissance style building originally constructed as an office of Gyeongseongbu in 1926. It is currently used as Seoul Library.","","","","110 Sejong-daero Jung-gu Seoul","Sejong-daero Jung-gu Seoul","Jung-gu?Office?Seoul?","ENG","2015-12-30","DATA","HTML","02-120","Registered Cultural Heritage No. 52","","Weekdays 09:00 ~ 21:00","","Parking space available","","","",""
"417","JGS_000017","Former US Culture Center(Grevin Museum)","","JGH_000154","126.98036","37.56624","","This was the Gyeongseong (Seoul) branch of Mitsui Trade of Japan completed in 1938 during Japanese colonial era. It was used as US Embassy and US Culture Center after liberation and Euljiro Annex of Seoul City Hall afterwards. In 2015 it opened as Grevin Museum exhibiting the wax figures of the world stars.","","","","23 Eulji-ro Jung-gu Seoul","Eulji-ro Jung-gu Seoul","Jung-gu?Office?Seoul?","ENG","2015-12-30","DATA","HTML","","Registered Cultural Heritage No. 238","","","","","","","",""
"418","JGS_000018","Jeongdong Theater","","JGH_001121","126.97285","37.56596","MISO Theater","Jeongdong Theater was constructed in 1995 with the intention of restoring Wongaksa Theater the first modern theater constructed in Korea. It is a complex performance theater which has been planning developing and presenting refined performances and arts and programs for citizens.","","","","43 Jeongdong-gil Jung-gu Seoul","Jeongdong-gil Jung-gu Seoul","Jung-gu?Office?Seoul?","ENG","2015-12-30","DATA","HTML","02-751-1500","","","","","","","Double-headed drum experience","",""
"420","JGS_000020","Deoksugung National Museum of Art","","JGH_000379","126.97369","37.56589","Yi Royal Family Museum Yi Royal Museum","This is the western hall of the Deoksugung National Museum of Art which was constructed in 1938 during Japanese colonial era to be used as an art museum. It reopened as a branch of National Museum of Contemporary Art in 1998 and has exhibited the old arts of Joseon modern art contemporary art and the masterpieces of foreign masters.","","","","Deoksugung Palace 99 Sejong-daero Jung-gu Seoul","Sejong-daero Jung-gu Seoul","Jung-gu?Office?Seoul?","ENG","2015-12-30","DATA","HTML","02-2022-0600","Historical Site No. 124","Mondays January 1","","","","","","",""
"421","JGS_000021","Jeongdong Observatory","","JGH_001122","126.9756","37.56433","","This is the observatory located on the 13th floor of Seosomun Building I of Seoul City. It provides the view of the entire Deoksugung Palace City Hall Seoul Plaza and Jeong-dong area at a glance.","","","","15 Deoksugung-gil Jung-gu Seoul","Deoksugung-gil Jung-gu Seoul","Jung-gu?Office?Seoul?","ENG","2015-12-30","DATA","HTML","","","","","","","","","",""
"422","JGS_000022","Sungnyemun Gate","","JGH_000300","126.97531","37.55998","","This is the front gate of the Hanyang City Wall that surrounded the old capital of the Joseon Dynasty and the original name is Sungnyemun Gate. It was also called Namdaemun (South Gate) for it was located on the south side. Sungnyemun Gate was close to Hangang River which connects three southern provinces (Gyeongsang-do Chungcheong-do and Jeolla-do) and the markets developed inside and outside the gate during the late Joseon Period when commerce developed.","","","","40 Sejong-daero Jung-gu Seoul","Sejong-daero Jung-gu Seoul","Jung-gu?Office?Seoul?","ENG","2015-12-30","DATA","HTML","042-481-4650","National Treasure No. 1","Mondays","","","","","","",""
"423","JGS_000023","Sungjeongjeon Hall of Gyeongheegung Palace (Jeonggakwon)","","JGH_000024","127.00115","37.55743","","Sungjeongjeon Hall was the main hall of Gyeongheegung Palace constructed when Gyeongheegung Palace was constructed between 1617 (Gwanghaegun 9) and 1620 (Gwanghaegun 12).","","","","30 Pildong-ro 1-gil Jung-gu Seoul","Pildong-ro Jung-gu Seoul","Jung-gu?Office?Seoul?","ENG","2015-12-30","DATA","HTML","02-724-0274~6","Tangible Cultural Heritage of Seoul No. 20","Mondays January 1","09:00 ~ 18:00","Free","","","","",""
"424","JGS_000024","Namsan Beacon Fire Station","","JGH_000021","126.98747","37.55201","","This was the central beacon fire station which received beacon fire signals throughout the nation during the Joseon Dynasty period every day and reported to the Ministry of War. The station used torch at night and smoke during the day to make signals.","","","","8-1 Yejang-dong Jung-gu Seoul","Yejang-dong Jung-gu Seoul","Jung-gu?Office?Seoul?","ENG","2015-12-30","DATA","HTML","","","","","","","","","",""
"425","JGS_000025","Namsangol Hanok Village","","JGH_000010","126.99447","37.55931","","Namsangol Hanok Village was developed in 1998 in the 79934m² (24180 pyeong) site of Capital Defense Command in the north of Namsan Mountain with 5 Korean traditional mansions Traditional Craft Museum Cheonugak traditional garden Seoul Namsan Traditional Theater and the New Millennium Time Capsule Plaza to embrace citizens and tourists. It gives a chance to have a variety of programs to experience Korean traditional culture and enjoy the beautiful scenery created by the hill pavilions and various flowers and plants in the heart of the busy city. The Millennium Time Capsule Plaza is located on the highest point of the traditional garden and the memories of Seoul are placed in the time capsule in 1994 to commemorate the 600th anniversary of the establishment of Seoul as the capital city and will be opened 400 years later to commemorate the 1000th anniversary.","","","","28 Toegye-ro 34-gil Jung-gu Seoul","Toegye-ro Jung-gu Seoul","Jung-gu?Office?Seoul?","ENG","2015-12-30","DATA","HTML","02-2261-0511","","Tuesdays","","Free","","","Hanpung Cultural Experience photograph shooting service straw crafts demonstration comments on traditional cultural heritage","",""
"426","JGS_000026","Seoul Millennium Time Capsule Plaza","","JGH_000430","126.9938","37.55737","","Time Capsule Plaza was constructed on November 29 1994 to commemorate the 600th anniversary of the designation of Seoul as the capital city in 1394 (Taejon 3) by King Taejo who founded the Joseon Dynasty and 600 products of civilization that can represent Seoul at the time were placed in the time capsule and buried here.","","","","Namsan Hanok Village 28 Toegye-ro 34-gil Jung-gu Seoul","Toegye-ro Jung-gu Seoul","Jung-gu?Office?Seoul?","ENG","2015-12-30","DATA","HTML","02-2264-4412","","","","","","","","",""
"427","JGS_000027","Seoul Namsan Traditional Theater","","JGH_000008","126.99352","37.5585","","Traditional Theater was built in the style of hanok that goes well with Namsangol Hanok Village and the basement floor has a projected stage that can present a variety of performances and the theater with 300 seats. The building is beautiful and it is a famous attraction frequented by both the citizens of Seoul and foreign tourists.","","","","28 Toegye-ro 34-gil Jung-gu Seoul","Toegye-ro Jung-gu Seoul","Jung-gu?Office?Seoul?","ENG","2015-12-30","DATA","HTML","02-2261-0512","","","","","","","","",""
"428","JGS_000028","Patriot Ahn Jung-geun Memorial Hall","","JGH_000012","126.9805","37.55384","","Ahn Jung-geun Memorial Hall was established in 1970 with the donation from the people by the order of President Park Chung-hee in the site that was occupied by Joseon Shinto Shrine during Japanese colonial era. Martyr An Jung-geun was the independence fighter who assassinated Ito Hirobumi who was the first Japanese Governor-General of Korea.","","","","91 Sowol-ro Jung-gu Seoul","Sowol-ro Jung-gu Seoul","Jung-gu?Office?Seoul?","ENG","2015-12-30","DATA","HTML","02-3789-1016 1026","","Mondays January 1 Lunar New Year's Day Chuseok","","Free","","","","",""
"429","JGS_000029","Baekbeom Plaza","","JGH_000445","126.97923","37.55486","","Baekbeom Plaza was developed in Namsan Outdoor Theater Plaza in August 1968. Baekbeom Plaza was established to commemorate Kim Gu (penname: Baekbeom 1876~1949) who became the Premier of the Provisional Government of the Republic of Korea.","","","","100-115 Hoehyeon-dong 1-ga Jung-gu Seoul","Hoehyeon-dong Jung-gu Seoul","Jung-gu?Office?Seoul?","ENG","2015-12-30","DATA","HTML","","","","","","","","","",""
"430","JGS_000030","Seokhojeong Pavilion","","JGH_000013","126.99995","37.5544","","Seokhojeong Pavilion is the archery field established in the late Joseon Dynasty period. It was the home of Korean archery and also the origin place for Korea’s Western archery team which dominates the world.","","","","14-21 Jangchung-dong 2-ga Jung-gu Seoul","Jangchung-dong Jung-gu Seoul","Jung-gu?Office?Seoul?","ENG","2015-12-30","DATA","HTML","02-2266-0665","","","","","","","","",""
"431","JGS_000031","Namsan Cable Car","","JGH_000771","126.98727","37.55235","","Namsan Cable Car is the first cable car installed in Korea. Namsan Cable car brings visitors from the platform near Myeong-dong to N Seoul Tower on the top of Namsan Mountain. On the cable car visitors can take a look at the scenery of Namsan Mountain alongside the areas adjacent to the mountain such as Myeong-dong Euljiro and Chungmuro.","","","","83 Sopa-ro Jung-gu Seoul","Sopa-ro Jung-gu Seoul","Jung-gu?Office?Seoul?","ENG","2015-12-30","DATA","HTML","02-753-2403","","","","","Parking space available","","","",""
"432","JGS_000032","N Seoul Tower","","JGH_000525","126.98822","37.55116","","N Seoul Tower is Korea’s first tower attraction constructed in 1975. It is quite a tall tower reaching 480m in actual length including the height of Namsan Mountain 243m and the height of N Seoul Tower 236.7m. N Seoul Tower has the observatory that provides the view of Seoul at a glance the Locks of Love terrace for couples to promise their eternal love and the revolving restaurant with the view of Seoul.","","","","105 Namsangongwon-gil Jung-gu Seoul","Namsangongwon-gil Jung-gu Seoul","Jung-gu?Office?Seoul?","ENG","2015-12-30","DATA","HTML","02-3455-9277","","","","","","","","",""
"433","JGS_000033","Seoul Animation Center (Former Site of Japanese Residency-General of Korea)","","JGH_000624","126.98791","37.55825","","Seoul Animation Center was established in 1999 to support and foster Korean comics and animation industries.","","","","126 Sopa-ro Jung-gu Seoul","Sopa-ro Jung-gu Seoul","Jung-gu?Office?Seoul?","ENG","2015-12-30","DATA","HTML","02-3455-8341","","Mondays Holidays","Tuesday  ~ Sunday 10:00 ~ 18:00","","Parking space available","","","",""
"434","JGS_000034","ZAEMIRANG (Seoul Comics Space)","","JGH_001148","126.98627","37.55827","","This is a space for comics culture that opened in December 2013 and it is a 4-story building with 1 basement. It holds comics related exhibitions and programs and anyone can enjoy comics freely.","","","","42 Toegye-ro 20-gil Jung-gu Seoul","Toegye-ro Jung-gu Seoul","Jung-gu?Office?Seoul?","ENG","2015-12-30","DATA","HTML","02-779-6107","","","","","","","","",""
"435","JGS_000035","Namdaemun Market","","JGH_000727","126.97766","37.55917","","Namdaemun Market is the representative marketplace in Seoul with over 600 years of tradition and 10000 or more stores in 58 buildings including the neighboring malls.","","","","21 Namdaemun Market 4-gil Jung-gu Seoul","Namdaemun Market Jung-gu Seoul","Jung-gu?Office?Seoul?","ENG","2015-12-30","DATA","HTML","02-753-2805","","Sundays","","","","","","",""
"436","JGS_000036","Jangchungdanbi","","JGH_000060","127.00481","37.55834","","This was the previous location of the altar established in 1900 (Gwangmu 4) to cherish the memory of those who died in the line of duty during the Eulmi Incident in 1895 and it enshrined the tablets of the loyal subjects who died during Imo Incident in 1882 and Gapsin Coup in 1884.","","","","257-10 Dongho-ro Jung-gu Seoul","Dongho-ro Jung-gu Seoul","Jung-gu?Office?Seoul?","ENG","2015-12-30","DATA","HTML","","","","","","","","","",""
"437","JGS_000037","Supyogyo Bridge","","JGH_001145","127.00499","37.55809","","Supyogyo Bridge was constructed in 1420 in the 2nd year in the reign of King Sejong and it was an important bridge for it served as the water gauge to control flood.","","","","San-4-50 San-6-5 197-1 Jangchung-dong 2-ga Jung-gu Seoul","Jangchung-dong Jung-gu Seoul","Jung-gu?Office?Seoul?","ENG","2015-12-30","DATA","HTML","","Tangible Cultural Heritage of Seoul No. 18","","","","","","","",""
"438","JGS_000038","Monument of Korea Confucian Scholar's Independence Petition Sent to the Paris Peace Conference","","JGH_000747","127.00377","37.55764","","Monument of Korean Confucian Scholars' Independent Movement by Long Letter to Paris was constructed by the Association of Korean Confucian Scholars' Independent Movement by Long Letter to Paris in 1973 to commemorate the long letter sent by 137 representative Confucian scholars of Korea to petition the Paris Peace Conference held in Paris France in 1919 for the independence of Joseon (Korea).","","","","257-10 Dongho-ro (197 Jangchung-dong 2-ga) Jung-gu Seoul","Dongho-ro Jung-gu Seoul","Jung-gu?Office?Seoul?","ENG","2015-12-30","DATA","HTML","","","","","","","","","",""
"439","JGS_000039","Statue of Patriotic Martyr Yi Jun","","JGH_000750","127.003579","37.557085","","Yi Jun who was dispatched as the emissary of Emperor to Hague Peace Conference held in Netherlands in 1907. However he could not participate in the conference due to the interruption of Japan and England and the ignorance of the powers and died in Hague due to a disease he suffered there. This statue was constructed in Jangchungdan Park by Ilseonghoe Association in 1964 to cherish the lofty patriotism of the patriotic martyr Yi Jun.","","","","257-10 Dongho-ro (197 Jangchung-dong 2-ga) Jung-gu Seoul","Dongho-ro Jung-gu Seoul","Jung-gu?Office?Seoul?","ENG","2015-12-30","DATA","HTML","","","","","","","","","",""
"440","JGS_000040","Statue of Patriotic Martyr Yu Gwan-sun","","JGH_000757","127.00327","37.55501","","She is the independence fighter who joined the March First Independence Movement that was held during Japanese colonial era at the young age of 17. Her statue was originally erected on Taepyeong-ro (behind Namdaemun Gate) by Patriotic Martyr Statue Construction Association (Seoul Shinmun) in 1970 and moved to current location at the foot of Jangchung-dong in Namsan Park in 1971.","","","","Inside Namsan Park 101 Jangchungdan-ro Jung-gu Seoul","Jangchungdan-ro Jung-gu Seoul","Jung-gu?Office?Seoul?","ENG","2015-12-30","DATA","HTML","","","","","","","","","",""
"441","JGS_000041","March First Independence Movement Monument","","JGH_000755","127.00164","37.55284","","March First Independence Movement Monument in Namsan Park was erected to commemorate the beginning of the nonviolent demonstration for independence following the proclamation of the independence of Korea on March 1 1919 by Korean people who were under Japanese colonial rule. It was erected on March 1 1999 on the 80th anniversary of the independence demonstration by the Independence Movement Monument Construction Association.","","","","San 14-81 Jangchung-dong 2-ga Jung-gu Seoul","Jangchung-dong Jung-gu Seoul","Jung-gu?Office?Seoul?","ENG","2015-12-30","DATA","HTML","","","","","","","","","",""
"442","JGS_000042","National Theater of Korea","","JGH_000045","126.9998","37.55254","","This is the first National Theater established in Asia in 1950 in order to promote the development of national stage art. Current National Theater building was completed in 1973 and the National Theater currently has 3 organizations such as National Changgeuk Company of Korea National Dance Company of Korea and National Orchestra of Korea.","","","","59 Jangchungdan-ro Jung-gu Seoul","Jangchungdan-ro Jung-gu Seoul","Jung-gu?Office?Seoul?","ENG","2015-12-30","DATA","HTML","02-2280-4114","","","","","Parking space available","Group visit by challenged people braille guidebook available","","","Internet mobile telephone and on-site reservation available"
"443","JGS_000043","Monument to Choe Hyeon-bae (Oesol)","","JGH_000756","127.00312","37.55611","","Choe Hyeon-bae (penname: Oesol 1894~1970) was a Korean linguist activist and educator who devoted his life to the study of Korean language such as establishing Korean grammar system.","","","","San 7-24 Jangchung-dong 2-ga Jung-gu Seoul","Jangchung-dong Jung-gu Seoul","Jung-gu?Office?Seoul?","ENG","2015-12-30","DATA","HTML","","","","","","","","","",""
"444","JGS_000044","Bronze Statue of Kim Yong-hwan","","JGH_000751","127.0001","37.55139","","Kim Yong-hwan made enormous efforts for the unification of Korean residents in Japan and the development of Federation of Korea Residents in Japan at the head of anticommunist activities. His statue was erected at the entrance of the National Theater in 1970 to cherish the memory of him who rendered great services in life time.","","","","Entrance of National Theater 59 Jangchungdan-ro Jung-gu Seoul","Jangchungdan-ro Jung-gu Seoul","Jung-gu?Office?Seoul?","ENG","2015-12-30","DATA","HTML","","","","","","","","","",""
"445","JGS_000045","Freedom Center","","JGH_000040","127.00252","37.55159","Korea Freedom Federation","Freedom Center designed by architect Kim Su-geun was completed in 1964 and used for anticommunist education. Freedom Center is known for applying the exposed mass concrete as it is for the first time in Korea.","","","","72 Jangchungdan-ro Jung-gu Seoul","Jangchungdan-ro Jung-gu Seoul","Jung-gu?Office?Seoul?","ENG","2015-12-30","DATA","HTML","","","","","","Parking space available","","","",""
"446","JGS_000046","Gwangheemun Gate","","JGH_000101","127.00999","37.56435","","Gwangheemun Gate is the Historical Site No. 10 and it is one of the four small gates of the city wall that surrounds the old capital standing toward southeast. It was constructed in 1396 when Hanyang City Wall was constructed and it was also called Sugumun Gate or Sigumun Gate.","","","","105 Gwanghee-dong 2-ga Jung-gu Seoul","Gwanghee-dong Jung-gu Seoul","Jung-gu?Office?Seoul?","ENG","2015-12-30","DATA","HTML","","","","","","","","","",""
"447","JGS_000047","Myeongdong Cathedral","","JGH_000131","126.98735","37.56317","","Myeongdong Cathedral is the cathedral of the Roman Catholic Archdiocese of Seoul located in Myeong-dong the birthplace of Korean Catholic church and is the symbolic building of Korean Catholic Church. It was designed by Father Eugene Joan George Coste and was completed in 1898 and it was built by 1000 or more volunteers.","","","","74 Myeongdong-gil Jung-gu Seoul","Myeongdong-gil Jung-gu Seoul","Jung-gu?Office?Seoul?","ENG","2015-12-30","DATA","HTML","02-774-1784","","","","","","","","",""
"448","JGS_000048","Bust of Yi Hoe-yeong","","JGH_001123","126.98598","37.56459","","Yi Hoe-yeong born into a prestigious family in Jeo-dong Jung-gu Seoul in 1867 and he died for Korea in 1932 while fighting for independence. Korean government posthumously awarded him the Order of Merit for National Foundation Independence Medal in 1962.","","","","In front of YWCA Hall 73 Myeongdong-gil Jung-gu Seoul","Myeongdong-gil Jung-gu Seoul","Jung-gu?Office?Seoul?","ENG","2015-12-30","DATA","HTML","","","","","","","","","",""
"449","JGS_000049","Main building of the Bank of Korea (Money Museum)","","JGH_000288","126.98056","37.56205","","The former main building of the Bank of Korea constructed in 1912 is a renaissance style 2-story building with a basement. It was used as the central bank and opened as Money Museum in 2001.","","","","39 Namdaemun-ro Jung-gu Seoul","Namdaemun-ro Jung-gu Seoul","Jung-gu?Office?Seoul?","ENG","2015-12-30","DATA","HTML","02-759-4881","Historical Site No. 280","Mondays Lunar New Year's Day Holidays and Chuseok Holidays December 29~January 2 Following Year","Tuesday  ~ Sunday 10:00 ~ 17:00","Free","","Toilet and elevator for challenged people","","Multilingual Voice Guide available",""
"450","JGS_000050","Main branch of Shinsegae Department Store (Former Mitsukoshi Department Store)","","JGH_000274","126.98113","37.5609","","This was the Gyeongseong branch of Mitsukoshi Department constructed in 1930. It turned into Donghwa Department Store after Japanese colonial era used as US Army’s post exchange store during the Korean War and opened as Shinsegae Department Store in 1963.","","","","63 Sogong-ro Jung-gu Seoul","Sogong-ro Jung-gu Seoul","Jung-gu?Office?Seoul?","ENG","2015-12-30","DATA","HTML","1588-1234","","","","","Parking space available","","","",""
"451","JGS_000051","Former main office of Korea First Bank","","JGH_000275","126.98041","37.56098","","The predecessor of former Korea First Bank was Joseon Savings Bank. The design for the building was selected through a contest for the first time in Korea and the building was completed in 1935.","","","","42 Namdaemun-ro Jung-gu Seoul","Namdaemun-ro Jung-gu Seoul","Jung-gu?Office?Seoul?","ENG","2015-12-30","DATA","HTML","","Tangible Cultural Heritage of Seoul No. 71","","","","","","","",""
"452","JGS_000052","Central Post Office (Stamp Museum)","","JGH_000556","126.98216","37.56175","","It started under the name of ‘Gyeongseong Branch of Incheon Post Office’ and was renamed ‘Gyeongseong Office’ in March 1901. The office had used the building newly constructed in October 1898 and a new 3-story building was constructed in front of this building in 1915 and the new building is today’s Seoul Central Post Office. Currently the place is occupied by the post tower was newly constructed in 2007.","","","","70 Sogong-ro Jung-gu Seoul","Sogong-ro Jung-gu Seoul","Jung-gu?Office?Seoul?","ENG","2015-12-30","DATA","HTML","","","","","","","","","",""
"453","JGS_000053","Museum of Sisters of St. Paul of Chartres","","","126.98802","37.56234","","Museum of Sisters of St. Paul of Chartres is a museum specializing in religion established to collect study preserve and exhibit the history of Sisters of St. Paul of Chartres which started by four nuns dispatched to Korea and was established in Korean in 1888.","","","","74-2 Myeongdong-gil Jung-gu Seoul","Myeongdong-gil Jung-gu Seoul","Jung-gu?Office?Seoul?","ENG","2015-12-30","DATA","HTML","","","","","","","","","",""
"454","JGS_000054","Global Village Folk Museum (Seoul Education Research & Information Institute)","","JGH_000611","126.98116","37.55448","","Global Village Folk Museum opened on February 16 2006 and it exhibits the materials and relics related with the folklore culture around the world.","","","","Seoul Education Research & Information Institute 46 Sopa-ro Jung-gu Seoul","Sopa-ro Jung-gu Seoul","Jung-gu?Office?Seoul?","ENG","2015-12-30","DATA","HTML","","","Mondays Festive Days","10:00 ~ 17:00","Free","","","","",""
"455","JGS_000055","Myeongdong Theater","","JGH_000127","126.98421","37.56403","","Myeongchijwa (Meijiza) constructed in 1936 went through changes as it turned into Gukje Theater Sigonggwan (municipal hall) and National Theater and also was under threat of demolition. However it reopened as Myeongdong Theater in 2009.","","","","35 Myeongdong-gil Jung-gu Seoul","Myeongdong-gil Jung-gu Seoul","Jung-gu?Office?Seoul?","ENG","2015-12-30","DATA","HTML","1644-2003","","","","","","","","","Online and telephone reservation and on-site purchase available"
"456","JGS_000056","Myeong-dong Nanta Theater","","JGH_000669","126.98378","37.56339","","Nanta is Korea first non-verbal performance that premiered in October 1997 and won enthusiastic responses as much as it mobilized the largest audience in Korea. Nanta Theater opened in October 2009 and is where Nanta is performed all year round.","","","","3Fl. 26 UNESCO House 26 Myeongdong-gil Jung-gu Seoul","Myeongdong-gil Jung-gu Seoul","Jung-gu?Office?Seoul?","ENG","2015-12-30","DATA","HTML","02-739-8288","","","Monday ~ Friday Sunday and Holidays 17:00 20:00 Saturday 14:00 17:00 20:00","","","","","",""
"457","JGS_000057","UNESCO House (UNESCO Road)","","JGH_000141","126.98378","37.56339","","UNESCO House was completed in 1967 using the latest facilities at the time and it was the first 13-story building in Korea and became the land of Myeong-dong.","","","","26 Myeongdong-gil Jung-gu Seoul","Myeongdong-gil Jung-gu Seoul","Jung-gu?Office?Seoul?","ENG","2015-12-30","DATA","HTML","","","","","","","","","",""
"458","JGS_000058","Ginkgo Tree of Hoehyeon-dong","","JGH_000097","126.9813","37.55936","","Ginkgo tree of Hoehyeon-dong is a protected tree that is over 500 years. For it is old it has a number of anecdotes. The most famous one is that 12 of the descendants of Jeong Gwang-pil became ministers.","","","","14-3 Hoehyeon-dong 1-ga Jung-gu Seoul","Hoehyeon-dong Jung-gu Seoul","Jung-gu?Office?Seoul?","ENG","2015-12-30","DATA","HTML","","","","","","","","","",""
"459","JGS_000059","Namsan Palgakjeong Pavilion (Guksadang Shrine Site)","","JGH_000526","126.98763","37.55164","","Guksadang was the shrine that enshrined the guardian spirit called Mokmyeok Daewang from the early Joseon Dynasty to the late Joseon Dynasty to pray for the peace of the nation. The shrine was called the Mokmyeok Shrine previously and it was relocated by force in 1925 during Japanese colonial era when Japanese people constructed Joseon Shinto Shrine in the place.","","","","8-1 Yejang-dong Jung-gu Seoul","Yejang-dong Jung-gu Seoul","Jung-gu?Office?Seoul?","ENG","2015-12-30","DATA","HTML","","","","","","","","","",""
"460","JGS_000060","Site of Ryu Seong-ryong (stone marker)","","JGH_000462","126.9971","37.56181","","This is where Ryu Seong-ryong (Seoae) used to live. Ryu was appointed an official early in his life and during Japanese Invasion of Korea in 1592 he became the Commander-in-Chief of Three Provinces governing Chungcheong-do Jeolla-do and Gyeongsang-do to manage military affairs.","","","","228 Toegye-ro Jung-gu Seoul","Toegye-ro Jung-gu Seoul","Jung-gu?Office?Seoul?","ENG","2015-12-30","DATA","HTML","","","","","","","","","",""
"461","JGS_000061","Main office of Korean Red Cross","","JGH_000036","126.98814","37.56005","","Korean Red Cross established in 1905 was incorporated into Japanese Red Cross in 1909 and became the Korean branch of Japanese Red Cross. However it was reorganized into Korean Red Cross in 1949 following the liberation and has been involved in relief project social service project hospital blood related project and so on.","","","","145 Sopa-ro Jung-gu Seoul","Sopa-ro Jung-gu Seoul","Jung-gu?Office?Seoul?","ENG","2015-12-30","DATA","HTML","02-3705-3705","","","","","","","","",""
"462","JGS_000062","Waryongmyo Shrine","","JGH_000018","126.98663","37.55481","","Waryongmyo is the shrine dedicated to Zhuge Liang. It is not clear when it was constructed. However it was burned down in a fire in 1924 reconstructed in 1934 and repaired to today’s condition in 1976.","","","","125-72 Namsangongwon-gil (San 5-6 Yejang-dong) Jung-gu Seoul","Namsangongwon-gil Jung-gu Seoul","Jung-gu?Office?Seoul?","ENG","2015-12-30","DATA","HTML","","Seoul Folklore Material No. 5","","","","","","","",""
"463","JGS_000063","Pagoda Tree of Jeong-dong","","JGH_000381","126.97063","37.56679","","It is standing in front of Canadian Embassy in Jeong-dong Jung-gu Seoul and is 17 m tall and 5.16m in circumference. It is currently over 500 years old and designated as the protected tree of Seoul in 1976.","","","","21 Jeongdong-gil Jung-gu Seoul","Jeongdong-gil Jung-gu Seoul","Jung-gu?Office?Seoul?","ENG","2015-12-30","DATA","HTML","","","","","","","","","",""
"464","JGS_000064","Lotte Department Star Avenue","","JGH_000820","126.98148","37.5647","","Lotte Department Star Avenue located in front of Lotte Department Store exhibits photos showing Korean celebrities media bronze plates showing hand prints of Korean Wave stars cherished items of Korean celebrities and Korean Wave contents using interactive system.","","","","81 Namdaemun-ro Jung-gu Seoul","Namdaemun-ro Jung-gu Seoul","Jung-gu?Office?Seoul?","ENG","2015-12-30","DATA","HTML","","","","","","Parking space available","","","",""
"465","JGS_000065","Shinhan Museum","","JGH_000643","126.97635","37.56856","","Shinhan Museum is Korea’s first museum specializing in financial history and it was established by Chohung Bank which was merged into today’ to help visitors have overall understanding of the history of finance in Korea.","","","","135-5 Sejong-daero Jung-gu Seoul","Sejong-daero Jung-gu Seoul","Jung-gu?Office?Seoul?","ENG","2015-12-30","DATA","HTML","02-738-6806","","Sundays Holidays Labor Day","10:00 ~ 18:00","Free","","","","","Reservation for group visit available"
"466","JGS_000066","Deoksugung Palace Stonewall Walkway","","JGH_000833","126.97527","37.56486","","Deoksugung Palace Stonewall Walkway starts from the stonewall on the left side of the Daehanmun Gate of Deoksugung Palace continues along the alley between Deoksugung Palace and Habib House and stretches up to Saemunan-ro 2-gil. It has been popular among lovers for a long time for the renaissance style modern building and great spots for dating.","","","","Around 99 Sejong-daero Jung-gu Seoul","Sejong-daero Jung-gu Seoul","Jung-gu?Office?Seoul?","ENG","2015-12-30","DATA","HTML","","","","","","","","","",""
"467","JGS_000067","Residence of US Ambassador","","JGH_000349","126.97294","37.56703","","This building was used as US Legation from 1883 to 1905. It was constructed in 1883 and extended four times to current condition.","","","","83 Deoksugung-gil Jung-gu Seoul","Deoksugung-gil Jung-gu Seoul","Jung-gu?Office?Seoul?","ENG","2015-12-30","DATA","HTML","","","","","","","","","",""
"468","JGS_000068","Korea Electric Power Corporation (KEPCO) Building on Namdaemun-ro Seoul","","JGH_000120","126.98301","37.56528","","This is a 5-story building with a basement floor constructed for Gyeongseong Electricity Co. Ltd in 1928 and the fire resistant and earthquake resistant design was applied to the building for the first time in Korea. 2 more floors were added after the liberation and currently it is occupied by Korea Electric Power Corporation Seoul HQ. For it has values for the history of modern architecture it was designated as the Registered Cultural Heritage No. 1","","","","92 Namdaemun-ro Jung-gu Seoul","Namdaemun-ro Jung-gu Seoul","Jung-gu?Office?Seoul?","ENG","2015-12-30","DATA","HTML","","Registered Cultural Heritage No. 1","","","","","","","",""
"469","JGS_000069","Upside Down Statue","","JGH_001149","126.9904","37.55888","","A stone marker labeled “Upside Down Statue” in the site of the official residence of the Resident-General of Korea on August 22 2015. This stone marker was prepared with 3 pieces of stone from the statue of Hayashi Gonsuke who took the initiative for the conclusion of the Japan-Korea Treaty of 1905.","","","","6 Toegye-ro 26ga-gil Jung-gu Seoul","Toegye-ro Jung-gu Seoul","Jung-gu?Office?Seoul?","ENG","2015-12-30","DATA","HTML","","","","","","","","","",""
"470","JGS_000070","Literature House","","JGH_000622","126.98933","37.55835","","This was used as the official residence of the Commissioner of the National Security Planning Agency from 1975 to 1990. It opened by the new name of the “Literature House Seoul“ in 2001 and it holds Special Lecture on Literature on Wednesdays Literature Forum with Music and Poem Recital every year.","","","","65 Toegye-ro 26-gil Jung-gu Seoul","Toegye-ro Jung-gu Seoul","Jung-gu?Office?Seoul?","ENG","2015-12-30","DATA","HTML","","","","","","Parking space available","","","",""
"471","JGS_000071","Central Point of Seoul","","JGH_001150","126.98874","37.55184","","The central point of Seoul is on top of Namsan Mountain and is located on 126 degrees 59 minutes 30 seconds east and 37 degrees 33 minutes 6 seconds north. The city installed a structure symbolizing the central point here in 2010.","","","","125-54 Namsangongwon-gil Jung-gu Seoul","Namsangongwon-gil Jung-gu Seoul","Jung-gu?Office?Seoul?","ENG","2015-12-30","DATA","HTML","","","","","","","","","",""
"472","JGS_000072","Central Asia Village in Gwanghee-dong","","JGH_000485","127.00564","37.56549","","Central Asia Village in Gwanghee-dong was developed initially by the people from Russia and Central Asia moving into the area after the establishment of diplomatic ties between Korean and Russia in the beginning of 1990’s.","","","","Around 120 Gwanghee-dong 1-ga Jung-gu Seoul","Gwanghee-dong Jung-gu Seoul","Jung-gu?Office?Seoul?","ENG","2015-12-30","DATA","HTML","","","","","","","","","",""
"473","JGS_000073","Dongdaemun Fashion Town","","","127.00864","37.56866","","Dongdaemun Fashion Town refers to all markets distributed on both sides of Heunginmun-ro and both sides of Cheonggyecheon-ro and the alleys near the road stretching up to 2 km from Gwangjang Market on Jongno 5-ga to Sinseol Market on Cheonggye 8-ga.","","","","Around 275 Jangchungdan-ro Jung-gu Seoul","Jangchungdan-ro Jung-gu Seoul","Jung-gu?Office?Seoul?","ENG","2015-12-30","DATA","HTML","","","","","","","","","",""
"474","JGS_000074","Dongdaemun Design Plaza","","JGH_000240","127.0095","37.56672","","Dongdaemun Design Plaza is a mixed cultural space constructed in the former site of Dongdaemun Stadium. The construction began in April 2009 and the plaza opened in March 2014.","","","","281 Eulji-ro Jung-gu Seoul","Eulji-ro Jung-gu Seoul","Jung-gu?Office?Seoul?","ENG","2015-12-30","DATA","HTML","02-2153-0000","","","","","Parking space available","","","",""
"475","JGS_000075","Igansumun Watergate","","JGH_000242","127.01084","37.56796","","This is the water gate located in the south of Ogansumun Watergate which was located below Dongdaemun Gate of Hanyang City Wall. The stream that came down from Namsan Mountain joined the main stream of Cheonggyecheon Stream through the Igansumun Watergate outside the city wall. For it was made of two arched gates it was called Igansumun (Two-Gate Watergate).","","","","281 Eulji-ro Jung-gu Seoul","Eulji-ro Jung-gu Seoul","Jung-gu?Office?Seoul?","ENG","2015-12-30","DATA","HTML","","","","","","","","","",""
"476","JGS_000076","Dongdaemun Stadium Memorial Museum","","JGH_000636","127.01123","37.56766","","This memorial museum has the collection of records about a number of sports events and assemblies held in Dongdaemun Stadium and the inner facilities of the stadium which was constructed on May 24 1925 and removed in December 2007 and related relics","","","","281 Eulji-ro (853 Sindang-dong) Jung-gu Seoul","Eulji-ro Jung-gu Seoul","Jung-gu?Office?Seoul?","ENG","2015-12-30","DATA","HTML","","","","","","","","","",""
"477","JGS_000077","Dongdaemun History & Culture Park(Hadogam Site)","","JGH_000480","127.01131","37.56727","","This is a park on history and culture theme located in Jung-gu Seoul. This is a part of Dongdaemun Design Plaza developed in the site of Dongdaemun Stadium and it exhibits the relics and architectural remains that were discovered during the construction of the plaza. It also shows the sports events that were held at Dongdaemun Stadium.","","","","281 Eulji-ro (2-1 Eulji-ro 7-ga) Jung-gu Seoul","Eulji-ro Jung-gu Seoul","Jung-gu?Office?Seoul?","ENG","2015-12-30","DATA","HTML","02-2153-0408~9","","","","","","","","",""
"478","JGS_000078","Sindang-dong Tteokbokki Alley","","JGH_000109","127.01503","37.56287","","Sindang-dong Topokki Alley was established in the 1950’s. The spicy salty and sweet taste mainly made of hot pepper paste and black bean sauce is quite addictive and the alley is one of the attractions in Seoul crowded with foreign visitors.","","","","Around 50 Toegye-ro 76-gil Jung-gu Seoul","Toegye-ro Jung-gu Seoul","Jung-gu?Office?Seoul?","ENG","2015-12-30","DATA","HTML","","","","","","","","","",""
"479","JGS_000079","Former Dr. Seo's Clinic","","JGH_000239","127.01035","37.56481","","This was designed by Kim Jung-eop and was completed in 1965. It was used as a maternity hospital for over 30 years and today it is used as an ordinary office building. This building is characterized by exposed mass concrete and the smooth curves.","","","","349 Toegye-ro Jung-gu Seoul","Toegye-ro Jung-gu Seoul","Jung-gu?Office?Seoul?","ENG","2015-12-30","DATA","HTML","","","","","","","","","",""
"480","JGS_000080","Statue of Martyr An Jung-geun","","JGH_000739","126.98039","37.55347","","This bronze statue was erected to commemorate the achievement of martyr An Jung-geun the Assistant Lieutenant General of Korean Righteous Army who assassinated Ito Hirobumi the first Japanese Governor-General of Korea at Harbin Station in Heilong Jiang China. It was first located inside Soongeui Girls’ High School moved in front of Namsan Park Management Office which was the site of Joseon Shinto Shrine in 1967 and a new bronze statue was prepared. In 2010 it was coated in gold paint to prevent the cracking on the statue.","","","","Inside Namsan Park 91 Sowol-ro Jung-gu Seoul","Sowol-ro Jung-gu Seoul","Jung-gu?Office?Seoul?","ENG","2015-12-30","DATA","HTML","","","","","","","","","",""
"481","JGS_000081","Bronze Statue of Yi Si-yeong (Seongjae)","","JGH_000745","126.97925","37.55541","","Yi Si-yeong had enjoyed great wealth as the descendant of prestigious family however disposed of all his properties and the six brothers including him joined the independence movement and defended the provisional government from beginning to end. He was elected as the first Vice President after liberation. This bronze statue was erected in Baekbeom Plaza on April 17 1986 to cherish the patriotic spirit and devotion to the anti-Japanese national salvation movement and the establishment of democracy after liberation of the independence fighter educator and politician Yi Si-yeong.","","","","100-115 Hoehyeon-dong 1-ga Jung-gu Seoul","Hoehyeon-dong Jung-gu Seoul","Jung-gu?Office?Seoul?","ENG","2015-12-30","DATA","HTML","","","","","","","","","",""
"482","JGS_000082","Statue of Kim Yu-sin","","JGH_000744","126.97809","37.55575","","Kim Yu-sin (595~673) played a very important role for Silla to unify three states and also laid foundation for the Unified Silla Dynasty.","","","","Inside Children's Plaza at Namsan Park 39-2 Sowol-ro Jung-gu Seoul","Sowol-ro Jung-gu Seoul","Jung-gu?Office?Seoul?","ENG","2015-12-30","DATA","HTML","","","","","","","","","",""
"483","JGS_000083","Namsan Samsoon Stairs","","JGH_001151","126.98175","37.55444","","‘Namsan Samsoon Stairs’ became famous after it appeared in the finale scene of the drama <My Name is Kim Sam-soon>.","","","","46 Sopa-ro Jung-gu Seoul","Sopa-ro Jung-gu Seoul","Jung-gu?Office?Seoul?","ENG","2015-12-30","DATA","HTML","","","","","","","","","",""
"484","JGS_000084","Hanyang City Walls Seoul","","JGH_000069","127.01011","37.56417","","This city wall was constructed in 1396 (Taejo 5) and it surrounds Hanyang the capital city of Joseon. Namsan (Mokmyeoksan) section stretches from the back alley of Jangchung Stadium to Namsan Park.","","","","Jangchung-dong 2-ga Jung-gu Seoul","Jangchung-dong Jung-gu Seoul","Jung-gu?Office?Seoul?","ENG","2015-12-30","DATA","HTML","","Historical Site No. 10","","","","","","","",""
"485","JGS_000085","Jangchungdan Park","","JGH_000447","127.00505","37.55877","","This was the place for holding memorial service to the soldiers and loyal subjects who were sacrificed in the line of duty during the Eulmi Incident in 1895 Imo Incident in 1882 and Gapsin Coup in 1884 however was demoted to a park during Japanese colonial era. It turned into a neighborhood park in 1984 and was incorporated into a Namsan Park.","","","","257-10 Dongho-ro Jung-gu Seoul","Dongho-ro Jung-gu Seoul","Jung-gu?Office?Seoul?","ENG","2015-12-30","DATA","HTML","","","","","","","","","",""
"486","JGS_000086","Meaning of Myeong-dong by Time and Location","","","126.98449","37.56103","","Japanese residents who lived on Jingogae hill during Japanese colonial era began to develop Myeong-dong for their needs. Myeong-dong grew into the center of finance commerce and culture after liberation.","","","","Myeong-dong Jung-gu Seoul","Myeong-dong Jung-gu Seoul","Jung-gu?Office?Seoul?","ENG","2015-12-30","DATA","HTML","","","","","","","","","",""
"487","JGS_000087","Earl of Myeong-dong Yi Bong-gu","","","126.98354","37.56382","","Yi Bong-gu who became a journalist of The Maeil Shinmun in 1943 and later became a literary man active in Myeong-dong.","","","","Myeong-dong Jung-gu Seoul","Myeong-dong Jung-gu Seoul","Jung-gu?Office?Seoul?","ENG","2015-12-30","DATA","HTML","","","","","","","","","",""
"488","JGS_000088","Tearoom Culture of Myeong-dong (1950~60's Center of Culture and Arts)","","","126.98492","37.56437","","The tearooms in Myeong-dong had been the place for literary people and artists to discuss their work and take a rest from Japanese colonial era to liberation the Korean War and the 1960's.","","","","Myeong-dong Jung-gu Seoul","Myeong-dong Jung-gu Seoul","Jung-gu?Office?Seoul?","ENG","2015-12-30","DATA","HTML","","","","","","","","","",""
"489","JGS_000089","History of Changes of Tearooms in Myeong-dong","","","126.98428","37.56394","","Tearooms opened for the first time during Japanese colonial era and developed into the place for combined arts and the base for literary people and artists during liberation and the Korean War. In 1970's it became the central hangout for young people enjoying the hippie culture.","","","","Myeong-dong Jung-gu Seoul","Myeong-dong Jung-gu Seoul","Jung-gu?Office?Seoul?","ENG","2015-12-30","DATA","HTML","","","","","","","","","",""
"490","JGS_000090","Myeong-dong Center of Fashion and Trend in the 1970~80's","","","126.98283","37.56339","","Myeong-dong was notorious for the highest land price in Korean during the 1970's and the center for the latest fashion. Young people enjoyed the hippie culture from the West in tearooms and beer halls.","","","","Myeong-dong Jung-gu Seoul","Myeong-dong Jung-gu Seoul","Jung-gu?Office?Seoul?","ENG","2015-12-30","DATA","HTML","","","","","","","","","",""
"491","JGS_000091","Small Theaters of Myeong-dong","","","126.98789","37.5634","","The National Theater was established in Sigonggwan (municipal hall) after the Korean War. Afterwards Myeong-dong becomes the center of performing arts. In the 1970's however the small theaters that began to open in Myeong-dong one by one after the National Theater moved led the performing arts. Typical theaters include Jayu Theater and Samilo Warehouse Theater.","","","","Myeong-dong Jung-gu Seoul","Myeong-dong Jung-gu Seoul","Jung-gu?Office?Seoul?","ENG","2015-12-30","DATA","HTML","","","","","","","","","",""
"492","JGS_000092","One and Only Resting Place in Myeong-dong Myeong-dong Park","","","126.98517","37.56255","","Myeong-dong Park that opened in the 1950’s was the oasis of Myeong-dong which was crowded with commercial facilities. It was the playground for children in the neighborhood and a place to relax for workers from nearby shops and offices. It was also the place the heavy drunkards of Myeong-dong used to sober up before going home.","","","","Myeong-dong Jung-gu Seoul","Myeong-dong Jung-gu Seoul","Jung-gu?Office?Seoul?","ENG","2015-12-30","DATA","HTML","","","","","","","","","",""
"493","JGS_000093","Artists who died young (Park In-hwan Jeon Hye-rin Yun Yong-ha Yi Jung-seop Kim Gwan-sik)","","","126.98468","37.56231","","Artists of Myeong-dong during the 1950's were passionately engaged in creative activities and left masterpieces. Some of them left this world too early after creating brilliant works.","","","","Myeong-dong Jung-gu Seoul","Myeong-dong Jung-gu Seoul","Jung-gu?Office?Seoul?","ENG","2015-12-30","DATA","HTML","","","","","","","","","",""
"494","JGS_000094","A Day at Myeong-dong during the 1950's (Dong-a Daily Article in 1957)","","","126.98509","37.56125","","Myeong-dong during the 1950's was the place where people let out the desire of consumption that had been oppressed during Japanese colonial era and the Korean War. This is a presentation of a busy day at Myeong-dong in 1957 organized based on newspaper data. (Refer to the article 「A Day at Myeong-dong Microcosm of Seoul」 of Dong-a Daily dated November 25 1957)","","","","Myeong-dong Jung-gu Seoul","Myeong-dong Jung-gu Seoul","Jung-gu?Office?Seoul?","ENG","2015-12-30","DATA","HTML","","","","","","","","","",""
"495","JGS_000095","Fashion and Trend of Myeong-dong' in the 1950~60's","","","126.9846","37.56275","","Korean women realized the discomfort of hanbok while undergoing the Korean War and began to prefer Western clothes. Boutiques selling clothes that suit the taste of women and beauty parlors began to open in Myeong-dong from the 1950’s","","","","Myeong-dong Jung-gu Seoul","Myeong-dong Jung-gu Seoul","Jung-gu?Office?Seoul?","ENG","2015-12-30","DATA","HTML","","","","","","","","","",""
"496","JGS_000096","Boutiques of Myeong-dong","","","126.98455","37.56303","","Tailor’s shops boutiques shoe stores and beauty parlors opened in great numbers in Myeong-dong from the late 1950's and many schools and institutions teaching dress making and beauty art also opened centering on Myeong-dong. Boutiques at the time were the spaces that introduced new fashion to women.","","","","Myeong-dong Jung-gu Seoul","Myeong-dong Jung-gu Seoul","Jung-gu?Office?Seoul?","ENG","2015-12-30","DATA","HTML","","","","","","","","","",""
"497","JGS_000097","Eunseong Jujeom Myeong-dong Chanson - As Time Goes By (Park In-hwan)","","JGH_000489","126.9849","37.56206","","Eunseong Jujeom is the pub that actor Choi Bul-am’s mother ran and it was frequented by famous figures of the culture and art circles during the 1950’s ~ 1960’s. It was neater than other pubs and bars that it attracted all sorts of people.","","","","In Front of ARITAUM 59-7 Myeong-dong 1-ga Jung-gu Seoul","Myeong-dong Jung-gu Seoul","Jung-gu?Office?Seoul?","ENG","2015-12-30","DATA","HTML","","","","","","","","","",""
"498","JGS_000098","Story of Aseowon Chinese Restaurant and Chinatown","","","126.98287","37.56199","","Aseowon was the Chinese restaurant run by Chinese Korean people and it represented Chinese restaurants in the 1950’s ~ 1960’s and had been often used as the meeting place for famous politicians and business people. There is a Chinatown established during the time of enlightenment in the triangular block adjoining Namdaemun-ro at the western end of Myeong-dong from Noon Square to the rear alley of the Central Post Office. Old Chinese restaurants and stores carrying Chinese goods are here.","","","","Myeong-dong Jung-gu Seoul","Myeong-dong Jung-gu Seoul","Jung-gu?Office?Seoul?","ENG","2015-12-30","DATA","HTML","","","","","","","","","",""
"499","JGS_000099","Namsan Arts Center","","JGH_000625","126.98824","37.55881","","Namsan Arts Center started out as Drama Center in 1962 and turned into a modern theater through remodeling and reopened in June 2009.","","","","138 Sopa-ro Jung-gu Seoul","Sopa-ro Jung-gu Seoul","Jung-gu?Office?Seoul?","ENG","2015-12-30","DATA","HTML","02-758-2000","","","","","","","","",""
"500","JGS_000100","The Society of the Holy Cross of the Anglican Church of Korea","","","126.97533","37.56753","","Society of the Holy Cross of the Anglican Church of Korea was officially established by Bishop Mark N. Trollope in September 14 1925. The building was ruined during the Korean War and newly constructed by the Anglican Church of Korea in 1960.","","","","Jeong-dong Jung-gu Seoul","Jeong-dong Jung-gu Seoul","Jung-gu?Office?Seoul?","ENG","2015-12-30","DATA","HTML","","","","","","","","","",""
"502","JGS_000101","History of the Cheonggyecheon Stream","","","126.9777120","37.5691660","","‘Gaecheon Stream’ to ‘Cheonggyecheon Stream’ covering construction to restoration project.","","","","Jung-gu/Jongno-gu Seoul","","Seoul Metropolitan Government","ENG","","DATA","HTML","","","","","","","","","",""
"529","JGS_000102","Mojeongyo Bridge","","","126.979293","37.569052","","Mojeongyo Bridge that leads to fruit markets becomes Palseokdam a place for making wishes.","","","","Jung-gu/Jongno-gu Seoul","","Seoul Metropolitan Government","ENG","","DATA","HTML","","","","","","","","","",""
"525","JGS_000103","Kwangtonggyo Bridge","","","126.981045","37.568949","","Kwangtonggyo a bridge built by stones brought from the royal tomb of Queen Shinduk","","","","Jung-gu/Jongno-gu Seoul","","Seoul Metropolitan Government","ENG","","DATA","HTML","","","","","","","","","",""
"538","JGS_000104","Kwangtonggyo Bridge’s Stonework","","","126.98089","37.569082","","Significance of Kwangtonggyo Bridge’s stonework and pier","","","","Jung-gu/Jongno-gu Seoul","","Seoul Metropolitan Government","ENG","","DATA","HTML","","","","","","","","","",""
"543","JGS_000105","Gwanggyo Bridge","","","126.982828","37.568828","","Cheonggyecheon Stream’s main bridge connecting the Gyeongbokgung Palace and the Sungnyemun Gate.","","","","Jung-gu/Jongno-gu Seoul","","Seoul Metropolitan Government","ENG","","DATA","HTML","","","","","","","","","",""
"548","JGS_000106","Jangtonggyo Bridge","","","126.985666","37.568355","","Bridge in Jungchon the town of translators and doctors","","","","Jung-gu/Jongno-gu Seoul","","Seoul Metropolitan Government","ENG","","DATA","HTML","","","","","","","","","",""
"553","JGS_000107","Samilgyo Bridge","","","126.987684","37.568068","","Samilgyo Bridge alongside with Samil building and Samillo Street commemorates the March 1st Independence Movement.","","","","Jung-gu/Jongno-gu Seoul","","Seoul Metropolitan Government","ENG","","DATA","HTML","","","","","","","","","",""
"558","JGS_000108","Supyogyo Bridge","","","126.990176","37.568149","","A bridge with Supyo a flood warning system of the Joseon Dynasty","","","","Jung-gu/Jongno-gu Seoul","","Seoul Metropolitan Government","ENG","","DATA","HTML","","","","","","","","","",""
"563","JGS_000109","Gwansugyo Bridge","","","126.992429","37.568365","","Gwansugyo Bridge meaning ‘looking at the Cheonggyecheon Stream from the Juncheonsa Government Office’","","","","Jung-gu/Jongno-gu Seoul","","Seoul Metropolitan Government","ENG","","DATA","HTML","","","","","","","","","",""
"568","JGS_000110","Seungyo Bridge","","","126.995342","37.568576","","Hyogyeonggyo Bridge next to a village of Joseon’s blind people becomes the Seungyo Bridge beneath the Seun Marketplace","","","","Jung-gu/Jongno-gu Seoul","","Seoul Metropolitan Government","ENG","","DATA","HTML","","","","","","","","","",""
"573","JGS_000111","Baeogae Bridge","","","126.997975","37.568863","","Baeogae Bridge and Baeogae Market","","","","Jung-gu/Jongno-gu Seoul","","Seoul Metropolitan Government","ENG","","DATA","HTML","","","","","","","","","",""
"578","JGS_000112","Saebyeok Bridge","","","127.000211","37.569290","","A bridge with a name that contains the vibrant feeling of Gwangjang and Bangsan Market at early dawn.","","","","Jung-gu/Jongno-gu Seoul","","Seoul Metropolitan Government","ENG","","DATA","HTML","","","","","","","","","",""
"583","JGS_000113","Majeongyo Bridge","","","127.002083","37.569597","","Majeon a marketplace for horse and cow trade where snake hunters lived","","","","Jung-gu/Jongno-gu Seoul","","Seoul Metropolitan Government","ENG","","DATA","HTML","","","","","","","","","",""
"588","JGS_000114","Narae Bridge","","","127.004613","37.569603","","The soaring clothing business of Dongdaemun Gate","","","","Jung-gu/Jongno-gu Seoul","","Seoul Metropolitan Government","ENG","","DATA","HTML","","","","","","","","","",""
"593","JGS_000115","Buddle Bridge(Jeon Tae-il Bridge)","","","127.006709","37.569631","","The 1970s when Jeon Tae-il awakened the reality of working condition","","","","Jung-gu/Jongno-gu Seoul","","Seoul Metropolitan Government","ENG","","DATA","HTML","","","","","","","","","",""
"598","JGS_000116","Ogansugyo Bridge","","","127.009730","37.569760","","Japan demolishes Joseon’s Ogansumun Floodgate and builds Ogansugyo Bridge.","","","","Jung-gu/Jongno-gu Seoul","","Seoul Metropolitan Government","ENG","","DATA","HTML","","","","","","","","","",""
"603","JGS_000117","Malgeunnae Bridge","","","127.012508","37.569762","","Malgeunnae a pure Korean word for Cheonggyecheon Stream","","","","Jung-gu/Jongno-gu Seoul","","Seoul Metropolitan Government","ENG","","DATA","HTML","","","","","","","","","",""
"608","JGS_000118","Dasangyo Bridge","","","127.015917","37.569794","","A bridge built to honor the life of Dasan","","","","Jung-gu/Jongno-gu Seoul","","Seoul Metropolitan Government","ENG","","DATA","HTML","","","","","","","","","",""
"613","JGS_000119","Yeongdogyo Bridge","","","127.019050","37.571027","","A bridge with the tragedy of King Danjong and Queen Jungsun","","","","Jung-gu/Jongno-gu Seoul","","Seoul Metropolitan Government","ENG","","DATA","HTML","","","","","","","","","",""
"619","JGS_000120","Hwanghakgyo Bridge","","","127.023407","37.571725","","Doggaebi Market an antique market where poor women sold their hair","","","","Jung-gu/Dongdaemun-gu Seoul","","Seoul Metropolitan Government","ENG","","DATA","HTML","","","","","","","","","",""
"624","JGS_000121","Biudanggyo Bridge","","","127.026658","37.570760","","The symbol of righteous life Biudang which means ‘a house that would barely shelter the rain’","","","","Dongdaemun-gu/Seongdong-gu Seoul","","Seoul Metropolitan Government","ENG","","DATA","HTML","","","","","","","","","",""
"629","JGS_000122","Muhakgyo Bridge","","","127.030354","37.569794","","A folk tale of Great Master Muhak and Hanyang the capital of Joseon","","","","Dongdaemun-gu/Seongdong-gu Seoul","","Seoul Metropolitan Government","ENG","","DATA","HTML","","","","","","","","","",""
"634","JGS_000123","Dumul Bridge","","","127.033545","37.570804","","Dumul Bridge meaning ‘a bridge where two streams meet’ and the ‘wall of proposal’ below the bridge","","","","Dongdaemun-gu/Seongdong-gu Seoul","","Seoul Metropolitan Government","ENG","","DATA","HTML","","","","","","","","","",""
"639","JGS_000124","Gosanjagyo Bridge","","","127.037931","37.572332","","Gosanja the pen name of Kim Jung-ho who made Daedong-yeojido Map","","","","Dongdaemun-gu/Seongdong-gu Seoul","","Seoul Metropolitan Government","ENG","","DATA","HTML","","","","","","","","","",""
"644","JGS_000125","The upstream of Cheonggyecheon and livelihood","","","126.983522","37.568693","","Luxurious housing complex of Joseon Jungin’s Sisa and the water-seller’s life","","","","Cheonggyecheon Seoul","","Seoul Metropolitan Government","ENG","","DATA","HTML","","","","","","","","","",""
"649","JGS_000126","The main stream of Cheonggyecheon and livelihood","","","127.003486","37.569572","","he center of the civilian’s culture - A place where Jungchon Village Sijeon Market pubs and the Jeongisu Concert stands.","","","","Cheonggyecheon Seoul","","Seoul Metropolitan Government","ENG","","DATA","HTML","","","","","","","","","",""
"655","JGS_000127","Cheonggyecheon Stream the wash place for women during Joseon Dynasty","","","127.017441","37.570278","","Cheonggyecheon Stream the wash place and rest area of Joseon’s women","","","","Cheonggyecheon Seoul","","Seoul Metropolitan Government","ENG","","DATA","HTML","","","","","","","","","",""
"660","JGS_000128","Downstream of Cheonggyecheon and livelihood","","","127.025354","37.571037","","Spring amusements at Ogansumun Gate and Gasan Hill’s snake hunters","","","","Cheonggyecheon Seoul","","Seoul Metropolitan Government","ENG","","DATA","HTML","","","","","","","","","",""
"665","JGS_000129","Dari Bapgi a bridge crossing game","","","126.981870","37.568862","","On Daeboreum the first full moon step on bridges in the Cheonggyecheon Stream and let misfortune of a year slide by the stream","","","","Cheonggyecheon Seoul","","Seoul Metropolitan Government","ENG","","DATA","HTML","","","","","","","","","",""
"670","JGS_000130","Kiteflying","","","126.991294","37.568252","","Kim Yu-sin who broke the rebellion by kiteflying and a tradition of writing the words ‘送厄迎福’ meaning ‘farewell misfortune welcome fortune’ on a kite and flying it.","","","","Cheonggyecheon Seoul","","Seoul Metropolitan Government","ENG","","DATA","HTML","","","","","","","","","",""
"675","JGS_000131","Lotus Lantern Festival","","","126.981870","37.568862","","Lotus Lantern Festival a festival where people pray to Buddha for fortune","","","","Cheonggyecheon Seoul","","Seoul Metropolitan Government","ENG","","DATA","HTML","","","","","","","","","",""
"680","JGS_000132","Mock fight with stones","","","126.984339","37.568659","","Joseon’s warlike mock fight with stones","","","","Cheonggyecheon Seoul","","Seoul Metropolitan Government","ENG","","DATA","HTML","","","","","","","","","",""
"685","JGS_000133","Taekyun at Cheonggyecheon Stream","","","127.001242","37.569457","","The last Taekyun training site and Taekyun Battle at Insa-dong","","","","Cheonggyecheon Seoul","","Seoul Metropolitan Government","ENG","","DATA","HTML","","","","","","","","","",""
"690","JGS_000134","Suseonjeondo","","","126.98489","37.568552","","Suseonjeondo a map of Hanyang","","","","Jongno-gu Seoul","","Seoul Metropolitan Government","ENG","","DATA","HTML","","","","","","","","","",""
"695","JGS_000135","Neunghaeng Banchado of King Jeongjo","","","126.98527","37.568509","","King Jeongjo’s procession to pay respects at the Royal Tomb of Sado a misfortunate prince","","","","Jongno-gu Seoul","","Seoul Metropolitan Government","ENG","","DATA","HTML","","","","","","","","","",""
"700","JGS_000136","King Yeongjo’s writing and Chae Jae-gong's Juncheonga","","","127.009682","37.569826","","King Yeongjo’s joy toward Juncheon Construction and the poem of Chae Jae-gong","","","","Jongno-gu Seoul","","Seoul Metropolitan Government","ENG","","DATA","HTML","","","","","","","","","",""
"705","JGS_000137","Ogansumun Floodgate","","","127.010614","37.569765","","Ogansumun Floodgate the rampart of Hanyang and the exit of Cheonggyecheon Stream’s waterway","","","","Jongno-gu Seoul","","Seoul Metropolitan Government","ENG","","DATA","HTML","","","","","","","","","",""
"710","JGS_000138","Juncheondo","","","127.009680","37.569675","","King Yeongjo encourages the dredging construction at the Ogansumun Floodgate.","","","","Jung-gu Seoul","","Seoul Metropolitan Government","ENG","","DATA","HTML","","","","","","","","","",""
"715","JGS_000139","A mural of the Cheonggyecheon Stream in the past","","","127.013774","37.569842","","Traces of the Cheonggyecheon Stream in the past","","","","Jongno-gu Seoul","","Seoul Metropolitan Government","ENG","","DATA","HTML","","","","","","","","","",""
"419","JGS_000019","Cecil Theater","","JGH_001147","126.97599","37.56673","","This is a small theater that opened in the annex of Seoul Cathedral of the Anglican Church of Korea in 1976. It held the first to the fifth Drama Festival of the Republic of Korea and was the center of the small theater movement which swept the country in the 1970’s.","","","","16 Sejong-daero 19-gil Jung-gu Seoul","Sejong-daero Jung-gu Seoul","Jung-gu?Office?Seoul?","ENG","2015-12-30","DATA","HTML","02-742-7601","","","","","","","","",""