"키","명칭","행정시","행정구","행정동","대표전화","면적","지정일"
"BE_IW14-0076","Bukhansan National Park","","","","02-909-0497~8","",""
"BE_IW14-0077","Bulgwang Neighborhood Park","Seoul","Eunpyeong-gu","Bulgwang1-dong","02-351-8002 ~ 8005","",""
"BE_IW14-0078","Buramsan Mountain","Seoul","Nowon-gu","Junggyebon-dong","02-2116-3966","",""
"BE_IW14-0079","Sayuksin Park","Seoul","Dongjak-gu","Noryangjin1-dong","02-820-1395","",""
"BE_IW14-0080","Sajik Park","Seoul","Jongno-gu","Sajik-dong","02-2148-2894/739-7205","",""
"BE_IW14-0081","Samil Park","Seoul","Dongjak-gu","Sadang3-dong","02-820-9845","",""
"BE_IW14-0082","Samcheong Park","Seoul","Jongno-gu","Samcheong-dong","02-2148-4153","",""
"BE_IW14-0083","Sangdo Park","Seoul","Dongjak-gu","Sangdo3-dong","02-820-9848","",""
"BE_IW14-0084","Sangam Neighborhood Park","Seoul","Mapo-gu","Sangam-dong","02-3153-9553","",""
"BE_IW14-0085","Saemmal Park","Seoul","Gwanak-gu","Daehak-dong","02-880-3685","",""
"BE_IW14-0086","Saenmaeul Neighborhood Park","Seoul","Gangdong-gu","Myeongil1-dong","02-3425-6440","",""
"BE_IW14-0087","Seodaemun Independence Park","Seoul","Seodaemun-gu","Cheonyeon-dong","02-364-4686","",""
"BE_IW14-0088","West-Seoul Lake Park","Seoul","Yangcheon-gu","Sinwol3-dong","02-2604-3004","",""
"BE_IW14-0089","Seooreung Urban Natural Park","Seoul","Eunpyeong-gu","Jingwan-dong","02-351-8001~8005","",""
"BE_IW14-0090","Seoul Grand Park","Gyeonggi-do","Gwacheon-si","Munwon-dong","02-500-7335","",""
"BE_IW14-0091","Seoul Forest","Seoul","Seongdong-gu","Seongsu1ga1-dong","02-460-2901","",""
"BE_IW14-0092","Seoul Children's Grand Park","Seoul","Gwangjin-gu","Neung-dong","02-450-9311","",""
"BE_IW14-0093","Seoul Iris Garden","Seoul","Dobong-gu","Dobong2-dong","02-954-0031","",""
"BE_IW14-0094","Seocho Culture and Art Park","Seoul","Seocho-gu","Yangjae2-dong","02-2155-6864","",""
"BE_IW14-0095","Seonyudo Park","Seoul","Yeongdeungpo-gu","Dangsan2-dong","02-2631-93682634-7250","",""
"BE_IW14-0096","Seongbuk Park","Seoul","Seongbuk-gu","Donam2-dong","02-920-4418","",""
"BE_IW14-0097","Seongsu Park","Seoul","Seongdong-gu","Seongsu2ga3-dong","02-2286-6319","",""
"BE_IW14-0098","Sewun Greenaband Square","Seoul","Jongno-gu","Jongno1.2.3.4ga-dong","02-3783-5950","",""
"BE_IW14-0099","Sejongno Park","Seoul","Jongno-gu","Sajik-dong","02-3783-5950","",""
"BE_IW14-0100","Son Kee Chung Park","Seoul","Jung-gu","Jungnim-dong","02-3396-5894","",""
"BE_IW14-0101","Solbat Park","Seoul","Gangbuk-gu","Ui-dong","02-901-6939","",""
"BE_IW14-0102","Songpanaru Park","Seoul","Songpa-gu","Jamsil3-dong","02-2147-3380","",""
"BE_IW14-0103","Suraksan Park","Seoul","Nowon-gu","Sanggye3.4-dong","02-2116-3966","",""
"BE_IW14-0104","Citizen's Forest","Seoul","Seocho-gu","Yangjae2-dong","02-575-3895","",""
"BE_IW14-0105","Sinsa Neighborhood Park","Seoul","Eunpyeong-gu","Sinsa2-dong","02-351-8001~8005","",""
"BE_IW14-0106","Ssangmoon Neighborhood Park","Seoul","Dobong-gu","Ssangmun4-dong","02-2091-3754","",""
"BE_IW14-0107","Asia Park","Seoul","Songpa-gu","Jamsil7-dong","02-2147-3380","",""
"BE_IW14-0108","Achasan Mountain","Seoul","Gwangjin-gu","Guui2-dong","","",""
"BE_IW14-0109","Ansan Park","Seoul","Seodaemun-gu","Hongje1-dong","02-330-1395","",""
"BE_IW14-0110","Yeouido Park","Seoul","Yeongdeungpo-gu","Yeoui-dong","02-761-4079","",""
"BE_IW14-0111","Yeomchang Park","Seoul","Gangseo-gu","Yeomchang-dong","02-2600-4186","",""
"BE_IW14-0112","Yeongdeungpo Park","Seoul","Yeongdeungpo-gu","Yeongdeungpobon-dong","02-2670-3715~7","",""
"BE_IW14-0113","Ogeum Park","Seoul","Songpa-gu","Ogeum-dong","02-2137-3380","",""
"BE_IW14-0114","Odong Park","Seoul","Gangbuk-gu","Beon2-dong","02-901-6924","",""
"BE_IW14-0115","Onsu Park","","","","02-860-2321","",""
"BE_IW14-0116","Olympic Park","Seoul","Songpa-gu","Oryun-dong","02-410-1683~4","",""
"BE_IW14-0117","Waryong Park","Seoul","Jongno-gu","Muak-dong","02-731-0461/1650","",""
"BE_IW14-0118","Wau Park","Seoul","Mapo-gu","Seogang-dong","02-3153-9553","",""
"BE_IW14-0119","Foreigners ' Cemetery","Seoul","Mapo-gu","Hapjeong-dong","02-332-9175","",""
"BE_IW14-0120","Yongdu Park","Seoul","Dongdaemun-gu","Yongsin-dong","02-2127-4772","",""
"BE_IW14-0121","Yongma Park","Seoul","Jungnang-gu","Myeonmok4-dong","02-2094-2340~5","",""
"BE_IW14-0122","Yongsan Family Park","Seoul","Yongsan-gu","Yongsan2ga-dong","02-792-5661","",""
"BE_IW14-0123","Yongwangsan Neighborhood Park","Seoul","Yangcheon-gu","Mok5-dong","02-2620-3570","",""
"BE_IW14-0124","Umyeonsan Mountain","Seoul","Seocho-gu","Bangbae3-dong","02-2155-6883","",""
"BE_IW14-0125","Ujang Park","Seoul","Gangseo-gu","Ujangsan-dong","02-2600-4185","",""
"BE_IW14-0126","World Cup Park","Seoul","Mapo-gu","Seongsan2-dong","02-300-5500~2","",""
"BE_IW14-0127","Wolcheon Neighborhood Park","Seoul","Dobong-gu","Chang4-dong","02-2091-3754","",""
"BE_IW14-0128","Inneungsan Mountain","Seoul","Seocho-gu","Naegok-dong","","",""
"BE_IW14-0129","Inwangsan Park","Seoul","Jongno-gu","Cheongunhyoja-dong","02-731-1458","",""
"BE_IW14-0130","Iljasan Urban Natural Park","Seoul","Gangdong-gu","Dunchon2-dong","02-3425-6440","",""
"BE_IW14-0131","Ankara Park","Seoul","Yeongdeungpo-gu","Yeoui-dong","02-2670-3755","",""
"BE_IW14-0132","Jangji Park","Seoul","Songpa-gu","Jangji-dong","02-2137-3380","",""
"BE_IW14-0133","Jungnang Campground","Seoul","Jungnang-gu","Mangubon-dong","02-435-7168~9","",""
"BE_IW14-0134","Jungmaroo Park","Seoul","Yeongdeungpo-gu","Yeongdeungpo-dong","02-2670-3755","",""
"BE_IW14-0135","Cheonmasan","Seoul","Songpa-gu","Macheon2-dong","02-2147-3380","",""
"BE_IW14-0136","Cheonma Neighborhood Park","Seoul","Songpa-gu","Macheon2-dong","","",""
"BE_IW14-0137","Cheono Park","Seoul","Gangdong-gu","Cheonho2-dong","02-489-2776","",""
"BE_IW14-0138","Cheongnyang Park","Seoul","Seongbuk-gu","Seokgwan-dong","02-920-3395","",""
"BE_IW14-0139","Choansan Neighborhood Park","Seoul","Dobong-gu","Chang1-dong","02-2091-3753","",""
"BE_IW14-0140","Choansan Eco-Park","Seoul","Dobong-gu","Chang1-dong","02-2091-3753","",""
"BE_IW14-0141","Tapgol Park","Seoul","Jongno-gu","Jongno1.2.3.4ga-dong","02-731-0534/1650","",""
"BE_IW14-0142","Paris Park","Seoul","Yangcheon-gu","Mok5-dong","02-2620-3570","",""
"BE_IW14-0143","Pureun Arboretum","Seoul","Guro-gu","Oryu2-dong","02-2686-3200","",""
"BE_IW14-0144","Hyochang Park","Seoul","Yongsan-gu","Hyochang-dong","02-2199-7593 02-712-3043","",""
"BE_IW14-0145","Hullyeonwon Park","Seoul","Jung-gu","Euljiro-dong","02-2268-5810","",""
"BE_IW14-0001","Yangjaecheon","Seoul","Gangnam-gu","Samseong2-dong","02-445-1416","491022㎡(3.5㎞)",""
"BE_IW14-0002","Jungnangcheon Downtream Migratory bird Reserve Sanctuary","","","","02-2115-7550~5 02-2290-6851","591407㎡(3.5㎞)","2005.02.16"
"BE_IW14-0003","Cheonggyecheon Downtream Migratory bird Reserve Sanctuary","","","","02-2115-7550~5 02-2290-6851","361316㎡(2.0㎞)","2006.03.10"
"BE_IW14-0004","Anyangcheon Downtream Migratory bird Reserve Sanctuary","","","","02-2115-7550~5  02-2650-3590 02-2670-4131","318800㎡(1.0㎞)","2007.05.10"
"BE_IW14-0005","Buramsan Sahmyook university Ecological Landscape Protected Area","Seoul","Nowon-gu","Gongneung2-dong","02-2115-7550~5 02-950-3889","204271㎡","2006.06.27"
"BE_IW14-0006","Changdeok Palace Backyard Ecological Landscape Protected Area","Seoul","Jongno-gu","Jongno1.2.3.4ga-dong","02-2115-7550~5 02-731-1460~2 02-762-8261/9513","440707㎡","2006.06.27"
"BE_IW14-0007","Bongsan Ecology Protection Area","Seoul","Eunpyeong-gu","Sinsa2-dong","02-2115-7550~5 02-350-1397","73478㎡","2006.06.27"
"BE_IW14-0008","Inwangsan Ecology Protection Area","Seoul","Seodaemun-gu","Hongje3-dong","02-2115-7550~5 02-731-1460~2 02-330-1395","258098㎡","2007.12.27"
"BE_IW14-0009","Achasan Eco-Park","Seoul","Gwangjin-gu","Gwangjang-dong","02-450-7773 02-450-1192","23450㎡","2002.03"
"BE_IW14-0010","Gil-dong Eco-Park","Seoul","Gangdong-gu","Gil-dong","02-472-2770","80683㎡","1999.04.23"
"BE_IW14-0011","Yeouido Saetgang Eco-Park","","","","02-3780-0570~1","182000㎡",""
"BE_IW14-0012","Kangseo Wetland Ecological Park","Seoul","Gangseo-gu","Banghwa2-dong","02-3780-0621~3","340000㎡",""
"BE_IW14-0013","Woomyeonsan Natural Ecology Park","Seoul","Seocho-gu","Yangjae1-dong","02- 570-6395 02-570-6379","318644㎡",""
"BE_IW14-0014","World Cup Park","Seoul","Mapo-gu","Sangam-dong","02-300-5524~6","2689599㎡","2004.05.01"
"BE_IW14-0015","Hangang Bamseom Ecology Protection Area","Seoul","Yeongdeungpo-gu","Yeoui-dong","02-2115-7550~5 02-3780-0793~4","241490㎡","1999.08.10"
"BE_IW14-0016","Dunchon-dong Ecology Protection Area","Seoul","Gangdong-gu","Dunchon1-dong","02-2115-7550~5 02-480-1395","24696㎡","2000.03.06(2002.12.02)"
"BE_IW14-0017","Bangi-dong Ecology Protection Area","Seoul","Songpa-gu","Oryun-dong","02-2115-7550~5 02-410-3395","58909㎡","2002.04.15(2005.11.24)"
"BE_IW14-0018","Tancheon Ecology Protection Area","","","","02-2115-7550~5 02-445-1416 02-410-3395","1151466㎡","2002.04.15"
"BE_IW14-0019","Amsa-dong Ecology Protection Area","Seoul","Gangdong-gu","Amsa2-dong","02-2115-7550~5 02-3780-0865~6","126844㎡","2002.12.30"
"BE_IW14-0020","Jingwannae-dong Ecology Protection Area","Seoul","Eunpyeong-gu","Jingwan-dong","02-2115-7550~5 02-350-1397","16639㎡","2002.12.30"
"BE_IW14-0021","Godeok-dong Ecology Protection Area","Seoul","Gangdong-gu","Godeok1-dong","02-2115-7550~5 02-3780-0865~6","320377㎡","2004.10.20(2007.12.27)"
"BE_IW14-0022","Cheonggyesan Ecology Protection Area","Seoul","Seocho-gu","Yangjae2-dong","02-2115-7550~5 02-570-6396","146281㎡","2004.10.20"
"BE_IW14-0023","Heonilleung Ecology Protection Area","Seoul","Seocho-gu","Naegok-dong","02-2115-7550~5 02-570-6396 02-445-0347","56639㎡","2005.11.24"
"BE_IW14-0024","Namsan Ecology Protection Area","Seoul","Jung-gu","Pil-dong","02-2115-7550~5 02-3783-5960","705101㎡","2006.06.27(2007.12.27)"
"BE_IW14-0025","Gandaemae Park","Seoul","Dongdaemun-gu","Dapsimni1-dong","02-2249-2770","",""
"BE_IW14-0026","Galsan Park","Seoul","Yangcheon-gu","Sinjeong7-dong","02-2620-3570","",""
"BE_IW14-0027","Galhyeon Neighborhood Park","Seoul","Eunpyeong-gu","Bulgwang1-dong","02-351-8001~8005","",""
"BE_IW14-0028","Gamnocheon Eco-Park","Seoul","Geumcheon-gu","Doksan4-dong","02-890-2395","",""
"BE_IW14-0029","Gaeunsan Park","Seoul","Seongbuk-gu","Dongseon-dong","02-920-3795","",""
"BE_IW14-0030","Gaeungsan Park","Seoul","Guro-gu","Oryu2-dong","02-860-2321","",""
"BE_IW14-0031","Gaehwa Neighborhood Park","Seoul","Gangseo-gu","Banghwa3-dong","","",""
"BE_IW14-0032","Gyeonghuigung Palace","Seoul","Jongno-gu","Jongno1.2.3.4ga-dong","02-731-1650","",""
"BE_IW14-0033","Gyenam Park","Seoul","Yangcheon-gu","Sinjeong3-dong","02-2620-3570","",""
"BE_IW14-0034","Gocheok Park","Seoul","Guro-gu","Gocheok2-dong","02-860-2321","",""
"BE_IW14-0035","Gwanaksan(Hoamsan) Mountain","Seoul","Geumcheon-gu","Siheung2-dong","02-1234-1234","",""
"BE_IW14-0036","Gwanaksan Park","Seoul","Gwanak-gu","Cheongnyong-dong","02-880-36825","",""
"BE_IW14-0037","Yeolin Madang","Seoul","Jongno-gu","Sajik-dong","02-3783-5950","",""
"BE_IW14-0038","Guryongsan Mountain","Seoul","Seocho-gu","Naegok-dong","","",""
"BE_IW14-0039","Guam Park","Seoul","Gangseo-gu","Gayang2-dong","02-2600-4186","",""
"BE_IW14-0040","Kupabal Falls( Jingwan Neighborhood Park)","Seoul","Eunpyeong-gu","Jingwan-dong","02-387-0236","",""
"BE_IW14-0041","Seoul National Cemetery","Seoul","Dongjak-gu","Sadang2-dong","02-815-0625","",""
"BE_IW14-0042","Gung-dong Park","Seoul","Seodaemun-gu","Yeonhui-dong","02-330-1395","",""
"BE_IW14-0043","Gungsan Park","Seoul","Gangseo-gu","Gayang1-dong","02-2600-4185","",""
"BE_IW14-0044","Geumcheon Sports Park","Seoul","Geumcheon-gu","Doksan4-dong","02-2627-1652 ~ 7","",""
"BE_IW14-0045","Geumcheon Falls Park","Seoul","Geumcheon-gu","Siheung3-dong","02-2627-1652 ~ 7","",""
"BE_IW14-0046","Kumho Neighborhood Park","Seoul","Seongdong-gu","Guemho2.3ga-dong","02-2286-6319","",""
"BE_IW14-0047","Gil-dong Ecological Park","Seoul","Gangdong-gu","Gil-dong","02-472-2770","",""
"BE_IW14-0048","Kkachisan Park","Seoul","Dongjak-gu","Sadang5-dong","02-820-1395","",""
"BE_IW14-0049","Kkueong-gogae Park","Seoul","Gangseo-gu","Banghwa3-dong","02-2600-4183","",""
"BE_IW14-0050","Naksan Park","Seoul","Jongno-gu","Ihwa-dong","02-743-7985~6","",""
"BE_IW14-0051","Namsan Park","Seoul","Jung-gu","Gwanghui-dong","02-3783-5900","",""
"BE_IW14-0052","Nodeul Farm","Seoul","Yongsan-gu","Ichon2-dong","02-792-7520","",""
"BE_IW14-0053","Noryangjin Park","Seoul","Dongjak-gu","Daebang-dong","02-820-1395","",""
"BE_IW14-0054","Dalmaji Neighborhood Park","Seoul","Seongdong-gu","Guemho4ga-dong","02-2286-6319","",""
"BE_IW14-0055","Dapsimni Park","Seoul","Dongdaemun-gu","Dapsimni2-dong","02-2127-4772","",""
"BE_IW14-0056","Daemosan Park","Seoul","Gangnam-gu","Gaepo1-dong","02-2104-1921","",""
"BE_IW14-0057","Dogok Park","Seoul","Gangnam-gu","Dogok1-dong","02-2104-1910","",""
"BE_IW14-0058","Dosan Park","Seoul","Gangnam-gu","Apgujeong-dong","02-3423-6245","",""
"BE_IW14-0059","Dongmyeong Neighborhood Park","Seoul","Gangdong-gu","Godeok2-dong","02-3425-6440","",""
"BE_IW14-0060","Marronnier Park","Seoul","Jongno-gu","Ihwa-dong","02-2148-4158","",""
"BE_IW14-0061","Mansucheon Park","Seoul","Geumcheon-gu","Doksan3-dong","02-2627-1652 ~ 5","",""
"BE_IW14-0062","Maehwa Park","Seoul","Gangseo-gu","Deungchon1-dong","02-2600-4186","",""
"BE_IW14-0063","Myeongil Neighborhood Park","Seoul","Gangdong-gu","Sangil-dong","02-3425-6440","",""
"BE_IW14-0064","Munjeong Neighborhood Park","Seoul","Songpa-gu","Jangji-dong","02-2137-3380","",""
"BE_IW14-0065","Balbadak park","Seoul","Dobong-gu","Banghak3-dong","02-2091-3772","",""
"BE_IW14-0066","Banghwa Park","Seoul","Gangseo-gu","Banghwa3-dong","02-2600-4185","",""
"BE_IW14-0067","Baebongsan Park","Seoul","Dongdaemun-gu","Jeonnong2-dong","02-2127-4772","",""
"BE_IW14-0068","Paekryeon Park","Seoul","Seodaemun-gu","Hongeun2-dong","02-330-1395","",""
"BE_IW14-0069","Boramae Park","Seoul","Dongjak-gu","Sindaebang2-dong","02-2181-1187~96","",""
"BE_IW14-0070","Bongsan Urban Natural Park","Seoul","Eunpyeong-gu","Gusan-dong","02-351-8002 ~ 8005","",""
"BE_IW14-0071","Bongeun Park","Seoul","Gangnam-gu","Samseong1-dong","02-2104-1902","",""
"BE_IW14-0072","Bongjesan Park","Seoul","Gangseo-gu","Hwagok4-dong","02-2600-4184","",""
"BE_IW14-0073","Bonghwasan Park","Seoul","Jungnang-gu","Muk1-dong","02-2094-2340~5","",""
"BE_IW14-0074","North-Seoul Dream Forest","Seoul","Gangbuk-gu","Songjung-dong","02-2289-4001~5","",""
"BE_IW14-0075","Bukaksan Park","Seoul","Jongno-gu","Buam-dong","02-731-0395~7","",""